2021-02-06 17:37:34,118 INFO (SsoFilter.java:33)- doFilter started
2021-02-06 17:37:34,137 INFO (SsoFilter.java:24)- this is MyFilter,url :/images/client3.jpg
2021-02-06 17:37:34,142 INFO (SsoFilter.java:33)- doFilter started
2021-02-06 17:37:34,150 INFO (SsoFilter.java:24)- this is MyFilter,url :/index.html
2021-02-06 17:37:34,155 INFO (SsoFilter.java:33)- doFilter started
2021-02-06 17:37:34,182 INFO (SsoFilter.java:24)- this is MyFilter,url :/fonts/fontawesome-webfont.woff
2021-02-06 17:37:34,183 INFO (AdminInterceptor.java:20)- 非法请求preHandle
2021-02-06 17:37:34,183 INFO (SsoFilter.java:33)- doFilter started
2021-02-06 17:37:34,191 INFO (SsoFilter.java:24)- this is MyFilter,url :/fonts/fontawesome-webfont.ttf
2021-02-06 17:37:34,199 INFO (SsoFilter.java:33)- doFilter started
2021-02-06 17:37:34,217 INFO (SsoFilter.java:24)- this is MyFilter,url :/images/favicon.png
2021-02-06 17:37:34,219 INFO (SsoFilter.java:33)- doFilter started
2021-02-06 17:37:59,112 INFO (StartupInfoLogger.java:55)- Starting SpringbootprojectsApplication using Java 1.8.0_131 on DESKTOP-SOK2A46 with PID 2140 (D:\IDEA项目\springbootprojects\target\classes started by 13267 in D:\IDEA项目\springbootprojects)
2021-02-06 17:37:59,112 DEBUG (StartupInfoLogger.java:56)- Running with Spring Boot v2.4.2, Spring v5.3.3
2021-02-06 17:37:59,112 INFO (SpringApplication.java:660)- No active profile set, falling back to default profiles: default
